[
    {
        "id":0,
        "title":"Tarea uno",
        "descripcion":"Descripcion unos",
        "done":false
    },
    {
        "id":1,
        "title":"Tarea dos",
        "descripcion":"Descripcion unos",
        "done":false
    },
    {
        "id":2,
        "title":"Tarea tres",
        "descripcion":"Descripcion unos",
        "done":false
    },
    {
        "id":3,
        "title":"Tarea cuatro",
        "descripcion":"Descripcion unos",
        "done":false
    }
]